[
  {
    "type": "archive",
    "archive-type": "tar-gzip",
    "url": "https://static.crates.io/crates/adler/adler-1.0.2.crate",
    "sha256": "f26201604c87b1e01bd3d98f8d5d9a8fcbb815e8cedb41ffccbeb4bf593a35fe",
    "dest": "cargo/vendor/adler-1.0.2"
  },
  {
    "type": "inline",
    "contents": "{\"package\": \"f26201604c87b1e01bd3d98f8d5d9a8fcbb815e8cedb41ffccbeb4bf593a35fe\", \"files\": {}}",
    "dest": "cargo/vendor/adler-1.0.2",
    "dest-filename": ".cargo-checksum.json"
  },
  {
    "type": "archive",
    "archive-type": "tar-gzip",
    "url": "https://static.crates.io/crates/anyhow/anyhow-1.0.75.crate",
    "sha256": "a4668cab20f66d8d020e1fbc0ebe47217433c1b6c8f2040faf858554e394ace6",
    "dest": "cargo/vendor/anyhow-1.0.75"
  },
  {
    "type": "inline",
    "contents": "{\"package\": \"a4668cab20f66d8d020e1fbc0ebe47217433c1b6c8f2040faf858554e394ace6\", \"files\": {}}",
    "dest": "cargo/vendor/anyhow-1.0.75",
    "dest-filename": ".cargo-checksum.json"
  },
  {
    "type": "archive",
    "archive-type": "tar-gzip",
    "url": "https://static.crates.io/crates/arrayvec/arrayvec-0.7.4.crate",
    "sha256": "96d30a06541fbafbc7f82ed10c06164cfbd2c401138f6addd8404629c4b16711",
    "dest": "cargo/vendor/arrayvec-0.7.4"
  },
  {
    "type": "inline",
    "contents": "{\"package\": \"96d30a06541fbafbc7f82ed10c06164cfbd2c401138f6addd8404629c4b16711\", \"files\": {}}",
    "dest": "cargo/vendor/arrayvec-0.7.4",
    "dest-filename": ".cargo-checksum.json"
  },
  {
    "type": "archive",
    "archive-type": "tar-gzip",
    "url": "https://static.crates.io/crates/ash/ash-0.37.3+1.3.251.crate",
    "sha256": "39e9c3835d686b0a6084ab4234fcd1b07dbf6e4767dce60874b12356a25ecd4a",
    "dest": "cargo/vendor/ash-0.37.3+1.3.251"
  },
  {
    "type": "inline",
    "contents": "{\"package\": \"39e9c3835d686b0a6084ab4234fcd1b07dbf6e4767dce60874b12356a25ecd4a\", \"files\": {}}",
    "dest": "cargo/vendor/ash-0.37.3+1.3.251",
    "dest-filename": ".cargo-checksum.json"
  },
  {
    "type": "archive",
    "archive-type": "tar-gzip",
    "url": "https://static.crates.io/crates/base64/base64-0.21.5.crate",
    "sha256": "35636a1494ede3b646cc98f74f8e62c773a38a659ebc777a2cf26b9b74171df9",
    "dest": "cargo/vendor/base64-0.21.5"
  },
  {
    "type": "inline",
    "contents": "{\"package\": \"35636a1494ede3b646cc98f74f8e62c773a38a659ebc777a2cf26b9b74171df9\", \"files\": {}}",
    "dest": "cargo/vendor/base64-0.21.5",
    "dest-filename": ".cargo-checksum.json"
  },
  {
    "type": "archive",
    "archive-type": "tar-gzip",
    "url": "https://static.crates.io/crates/bitflags/bitflags-1.3.2.crate",
    "sha256": "bef38d45163c2f1dde094a7dfd33ccf595c92905c8f8f4fdc18d06fb1037718a",
    "dest": "cargo/vendor/bitflags-1.3.2"
  },
  {
    "type": "inline",
    "contents": "{\"package\": \"bef38d45163c2f1dde094a7dfd33ccf595c92905c8f8f4fdc18d06fb1037718a\", \"files\": {}}",
    "dest": "cargo/vendor/bitflags-1.3.2",
    "dest-filename": ".cargo-checksum.json"
  },
  {
    "type": "archive",
    "archive-type": "tar-gzip",
    "url": "https://static.crates.io/crates/bitflags/bitflags-2.4.1.crate",
    "sha256": "327762f6e5a765692301e5bb513e0d9fef63be86bbc14528052b1cd3e6f03e07",
    "dest": "cargo/vendor/bitflags-2.4.1"
  },
  {
    "type": "inline",
    "contents": "{\"package\": \"327762f6e5a765692301e5bb513e0d9fef63be86bbc14528052b1cd3e6f03e07\", \"files\": {}}",
    "dest": "cargo/vendor/bitflags-2.4.1",
    "dest-filename": ".cargo-checksum.json"
  },
  {
    "type": "archive",
    "archive-type": "tar-gzip",
    "url": "https://static.crates.io/crates/block-buffer/block-buffer-0.10.4.crate",
    "sha256": "3078c7629b62d3f0439517fa394996acacc5cbc91c5a20d8c658e77abd503a71",
    "dest": "cargo/vendor/block-buffer-0.10.4"
  },
  {
    "type": "inline",
    "contents": "{\"package\": \"3078c7629b62d3f0439517fa394996acacc5cbc91c5a20d8c658e77abd503a71\", \"files\": {}}",
    "dest": "cargo/vendor/block-buffer-0.10.4",
    "dest-filename": ".cargo-checksum.json"
  },
  {
    "type": "archive",
    "archive-type": "tar-gzip",
    "url": "https://static.crates.io/crates/bytemuck/bytemuck-1.14.0.crate",
    "sha256": "374d28ec25809ee0e23827c2ab573d729e293f281dfe393500e7ad618baa61c6",
    "dest": "cargo/vendor/bytemuck-1.14.0"
  },
  {
    "type": "inline",
    "contents": "{\"package\": \"374d28ec25809ee0e23827c2ab573d729e293f281dfe393500e7ad618baa61c6\", \"files\": {}}",
    "dest": "cargo/vendor/bytemuck-1.14.0",
    "dest-filename": ".cargo-checksum.json"
  },
  {
    "type": "archive",
    "archive-type": "tar-gzip",
    "url": "https://static.crates.io/crates/bytemuck_derive/bytemuck_derive-1.5.0.crate",
    "sha256": "965ab7eb5f8f97d2a083c799f3a1b994fc397b2fe2da5d1da1626ce15a39f2b1",
    "dest": "cargo/vendor/bytemuck_derive-1.5.0"
  },
  {
    "type": "inline",
    "contents": "{\"package\": \"965ab7eb5f8f97d2a083c799f3a1b994fc397b2fe2da5d1da1626ce15a39f2b1\", \"files\": {}}",
    "dest": "cargo/vendor/bytemuck_derive-1.5.0",
    "dest-filename": ".cargo-checksum.json"
  },
  {
    "type": "archive",
    "archive-type": "tar-gzip",
    "url": "https://static.crates.io/crates/cargo-util/cargo-util-0.2.6.crate",
    "sha256": "77042b5b585f701f1cfb4b6b12ebc02b9b0cefbc8dcce235906b6bf376d4245d",
    "dest": "cargo/vendor/cargo-util-0.2.6"
  },
  {
    "type": "inline",
    "contents": "{\"package\": \"77042b5b585f701f1cfb4b6b12ebc02b9b0cefbc8dcce235906b6bf376d4245d\", \"files\": {}}",
    "dest": "cargo/vendor/cargo-util-0.2.6",
    "dest-filename": ".cargo-checksum.json"
  },
  {
    "type": "archive",
    "archive-type": "tar-gzip",
    "url": "https://static.crates.io/crates/cc/cc-1.0.83.crate",
    "sha256": "f1174fb0b6ec23863f8b971027804a42614e347eafb0a95bf0b12cdae21fc4d0",
    "dest": "cargo/vendor/cc-1.0.83"
  },
  {
    "type": "inline",
    "contents": "{\"package\": \"f1174fb0b6ec23863f8b971027804a42614e347eafb0a95bf0b12cdae21fc4d0\", \"files\": {}}",
    "dest": "cargo/vendor/cc-1.0.83",
    "dest-filename": ".cargo-checksum.json"
  },
  {
    "type": "archive",
    "archive-type": "tar-gzip",
    "url": "https://static.crates.io/crates/cfg-if/cfg-if-1.0.0.crate",
    "sha256": "baf1de4339761588bc0619e3cbc0120ee582ebb74b53b4efbf79117bd2da40fd",
    "dest": "cargo/vendor/cfg-if-1.0.0"
  },
  {
    "type": "inline",
    "contents": "{\"package\": \"baf1de4339761588bc0619e3cbc0120ee582ebb74b53b4efbf79117bd2da40fd\", \"files\": {}}",
    "dest": "cargo/vendor/cfg-if-1.0.0",
    "dest-filename": ".cargo-checksum.json"
  },
  {
    "type": "archive",
    "archive-type": "tar-gzip",
    "url": "https://static.crates.io/crates/const-random/const-random-0.1.17.crate",
    "sha256": "5aaf16c9c2c612020bcfd042e170f6e32de9b9d75adb5277cdbbd2e2c8c8299a",
    "dest": "cargo/vendor/const-random-0.1.17"
  },
  {
    "type": "inline",
    "contents": "{\"package\": \"5aaf16c9c2c612020bcfd042e170f6e32de9b9d75adb5277cdbbd2e2c8c8299a\", \"files\": {}}",
    "dest": "cargo/vendor/const-random-0.1.17",
    "dest-filename": ".cargo-checksum.json"
  },
  {
    "type": "archive",
    "archive-type": "tar-gzip",
    "url": "https://static.crates.io/crates/const-random-macro/const-random-macro-0.1.16.crate",
    "sha256": "f9d839f2a20b0aee515dc581a6172f2321f96cab76c1a38a4c584a194955390e",
    "dest": "cargo/vendor/const-random-macro-0.1.16"
  },
  {
    "type": "inline",
    "contents": "{\"package\": \"f9d839f2a20b0aee515dc581a6172f2321f96cab76c1a38a4c584a194955390e\", \"files\": {}}",
    "dest": "cargo/vendor/const-random-macro-0.1.16",
    "dest-filename": ".cargo-checksum.json"
  },
  {
    "type": "archive",
    "archive-type": "tar-gzip",
    "url": "https://static.crates.io/crates/core-foundation/core-foundation-0.9.3.crate",
    "sha256": "194a7a9e6de53fa55116934067c844d9d749312f75c6f6d0980e8c252f8c2146",
    "dest": "cargo/vendor/core-foundation-0.9.3"
  },
  {
    "type": "inline",
    "contents": "{\"package\": \"194a7a9e6de53fa55116934067c844d9d749312f75c6f6d0980e8c252f8c2146\", \"files\": {}}",
    "dest": "cargo/vendor/core-foundation-0.9.3",
    "dest-filename": ".cargo-checksum.json"
  },
  {
    "type": "archive",
    "archive-type": "tar-gzip",
    "url": "https://static.crates.io/crates/core-foundation-sys/core-foundation-sys-0.8.4.crate",
    "sha256": "e496a50fda8aacccc86d7529e2c1e0892dbd0f898a6b5645b5561b89c3210efa",
    "dest": "cargo/vendor/core-foundation-sys-0.8.4"
  },
  {
    "type": "inline",
    "contents": "{\"package\": \"e496a50fda8aacccc86d7529e2c1e0892dbd0f898a6b5645b5561b89c3210efa\", \"files\": {}}",
    "dest": "cargo/vendor/core-foundation-sys-0.8.4",
    "dest-filename": ".cargo-checksum.json"
  },
  {
    "type": "archive",
    "archive-type": "tar-gzip",
    "url": "https://static.crates.io/crates/cpufeatures/cpufeatures-0.2.11.crate",
    "sha256": "ce420fe07aecd3e67c5f910618fe65e94158f6dcc0adf44e00d69ce2bdfe0fd0",
    "dest": "cargo/vendor/cpufeatures-0.2.11"
  },
  {
    "type": "inline",
    "contents": "{\"package\": \"ce420fe07aecd3e67c5f910618fe65e94158f6dcc0adf44e00d69ce2bdfe0fd0\", \"files\": {}}",
    "dest": "cargo/vendor/cpufeatures-0.2.11",
    "dest-filename": ".cargo-checksum.json"
  },
  {
    "type": "archive",
    "archive-type": "tar-gzip",
    "url": "https://static.crates.io/crates/crc32fast/crc32fast-1.3.2.crate",
    "sha256": "b540bd8bc810d3885c6ea91e2018302f68baba2129ab3e88f32389ee9370880d",
    "dest": "cargo/vendor/crc32fast-1.3.2"
  },
  {
    "type": "inline",
    "contents": "{\"package\": \"b540bd8bc810d3885c6ea91e2018302f68baba2129ab3e88f32389ee9370880d\", \"files\": {}}",
    "dest": "cargo/vendor/crc32fast-1.3.2",
    "dest-filename": ".cargo-checksum.json"
  },
  {
    "type": "archive",
    "archive-type": "tar-gzip",
    "url": "https://static.crates.io/crates/crunchy/crunchy-0.2.2.crate",
    "sha256": "7a81dae078cea95a014a339291cec439d2f232ebe854a9d672b796c6afafa9b7",
    "dest": "cargo/vendor/crunchy-0.2.2"
  },
  {
    "type": "inline",
    "contents": "{\"package\": \"7a81dae078cea95a014a339291cec439d2f232ebe854a9d672b796c6afafa9b7\", \"files\": {}}",
    "dest": "cargo/vendor/crunchy-0.2.2",
    "dest-filename": ".cargo-checksum.json"
  },
  {
    "type": "archive",
    "archive-type": "tar-gzip",
    "url": "https://static.crates.io/crates/crypto-common/crypto-common-0.1.6.crate",
    "sha256": "1bfb12502f3fc46cca1bb51ac28df9d618d813cdc3d2f25b9fe775a34af26bb3",
    "dest": "cargo/vendor/crypto-common-0.1.6"
  },
  {
    "type": "inline",
    "contents": "{\"package\": \"1bfb12502f3fc46cca1bb51ac28df9d618d813cdc3d2f25b9fe775a34af26bb3\", \"files\": {}}",
    "dest": "cargo/vendor/crypto-common-0.1.6",
    "dest-filename": ".cargo-checksum.json"
  },
  {
    "type": "archive",
    "archive-type": "tar-gzip",
    "url": "https://static.crates.io/crates/dbus/dbus-0.9.7.crate",
    "sha256": "1bb21987b9fb1613058ba3843121dd18b163b254d8a6e797e144cbac14d96d1b",
    "dest": "cargo/vendor/dbus-0.9.7"
  },
  {
    "type": "inline",
    "contents": "{\"package\": \"1bb21987b9fb1613058ba3843121dd18b163b254d8a6e797e144cbac14d96d1b\", \"files\": {}}",
    "dest": "cargo/vendor/dbus-0.9.7",
    "dest-filename": ".cargo-checksum.json"
  },
  {
    "type": "archive",
    "archive-type": "tar-gzip",
    "url": "https://static.crates.io/crates/dbus-crossroads/dbus-crossroads-0.5.2.crate",
    "sha256": "3a4c83437187544ba5142427746835061b330446ca8902eabd70e4afb8f76de0",
    "dest": "cargo/vendor/dbus-crossroads-0.5.2"
  },
  {
    "type": "inline",
    "contents": "{\"package\": \"3a4c83437187544ba5142427746835061b330446ca8902eabd70e4afb8f76de0\", \"files\": {}}",
    "dest": "cargo/vendor/dbus-crossroads-0.5.2",
    "dest-filename": ".cargo-checksum.json"
  },
  {
    "type": "archive",
    "archive-type": "tar-gzip",
    "url": "https://static.crates.io/crates/digest/digest-0.10.7.crate",
    "sha256": "9ed9a281f7bc9b7576e61468ba615a66a5c8cfdff42420a70aa82701a3b1e292",
    "dest": "cargo/vendor/digest-0.10.7"
  },
  {
    "type": "inline",
    "contents": "{\"package\": \"9ed9a281f7bc9b7576e61468ba615a66a5c8cfdff42420a70aa82701a3b1e292\", \"files\": {}}",
    "dest": "cargo/vendor/digest-0.10.7",
    "dest-filename": ".cargo-checksum.json"
  },
  {
    "type": "archive",
    "archive-type": "tar-gzip",
    "url": "https://static.crates.io/crates/dlv-list/dlv-list-0.5.2.crate",
    "sha256": "442039f5147480ba31067cb00ada1adae6892028e40e45fc5de7b7df6dcc1b5f",
    "dest": "cargo/vendor/dlv-list-0.5.2"
  },
  {
    "type": "inline",
    "contents": "{\"package\": \"442039f5147480ba31067cb00ada1adae6892028e40e45fc5de7b7df6dcc1b5f\", \"files\": {}}",
    "dest": "cargo/vendor/dlv-list-0.5.2",
    "dest-filename": ".cargo-checksum.json"
  },
  {
    "type": "archive",
    "archive-type": "tar-gzip",
    "url": "https://static.crates.io/crates/drm/drm-0.10.0.crate",
    "sha256": "97fb1b703ffbc7ebd216eba7900008049a56ace55580ecb2ee7fa801e8d8be87",
    "dest": "cargo/vendor/drm-0.10.0"
  },
  {
    "type": "inline",
    "contents": "{\"package\": \"97fb1b703ffbc7ebd216eba7900008049a56ace55580ecb2ee7fa801e8d8be87\", \"files\": {}}",
    "dest": "cargo/vendor/drm-0.10.0",
    "dest-filename": ".cargo-checksum.json"
  },
  {
    "type": "archive",
    "archive-type": "tar-gzip",
    "url": "https://static.crates.io/crates/drm-ffi/drm-ffi-0.6.0.crate",
    "sha256": "ba7d1c19c4b6270e89d59fb27dc6d02a317c658a8a54e54781e1db9b5947595d",
    "dest": "cargo/vendor/drm-ffi-0.6.0"
  },
  {
    "type": "inline",
    "contents": "{\"package\": \"ba7d1c19c4b6270e89d59fb27dc6d02a317c658a8a54e54781e1db9b5947595d\", \"files\": {}}",
    "dest": "cargo/vendor/drm-ffi-0.6.0",
    "dest-filename": ".cargo-checksum.json"
  },
  {
    "type": "archive",
    "archive-type": "tar-gzip",
    "url": "https://static.crates.io/crates/drm-fourcc/drm-fourcc-2.2.0.crate",
    "sha256": "0aafbcdb8afc29c1a7ee5fbe53b5d62f4565b35a042a662ca9fecd0b54dae6f4",
    "dest": "cargo/vendor/drm-fourcc-2.2.0"
  },
  {
    "type": "inline",
    "contents": "{\"package\": \"0aafbcdb8afc29c1a7ee5fbe53b5d62f4565b35a042a662ca9fecd0b54dae6f4\", \"files\": {}}",
    "dest": "cargo/vendor/drm-fourcc-2.2.0",
    "dest-filename": ".cargo-checksum.json"
  },
  {
    "type": "archive",
    "archive-type": "tar-gzip",
    "url": "https://static.crates.io/crates/drm-sys/drm-sys-0.5.0.crate",
    "sha256": "3a4f1c0468062a56cd5705f1e3b5409eb286d5596a2028ec8e947595d7e715ae",
    "dest": "cargo/vendor/drm-sys-0.5.0"
  },
  {
    "type": "inline",
    "contents": "{\"package\": \"3a4f1c0468062a56cd5705f1e3b5409eb286d5596a2028ec8e947595d7e715ae\", \"files\": {}}",
    "dest": "cargo/vendor/drm-sys-0.5.0",
    "dest-filename": ".cargo-checksum.json"
  },
  {
    "type": "archive",
    "archive-type": "tar-gzip",
    "url": "https://static.crates.io/crates/egl/egl-0.2.7.crate",
    "sha256": "a373bc9844200b1ff15bd1b245931d1c20d09d06e4ec09f361171f29a4b0752d",
    "dest": "cargo/vendor/egl-0.2.7"
  },
  {
    "type": "inline",
    "contents": "{\"package\": \"a373bc9844200b1ff15bd1b245931d1c20d09d06e4ec09f361171f29a4b0752d\", \"files\": {}}",
    "dest": "cargo/vendor/egl-0.2.7",
    "dest-filename": ".cargo-checksum.json"
  },
  {
    "type": "archive",
    "archive-type": "tar-gzip",
    "url": "https://static.crates.io/crates/errno/errno-0.3.5.crate",
    "sha256": "ac3e13f66a2f95e32a39eaa81f6b95d42878ca0e1db0c7543723dfe12557e860",
    "dest": "cargo/vendor/errno-0.3.5"
  },
  {
    "type": "inline",
    "contents": "{\"package\": \"ac3e13f66a2f95e32a39eaa81f6b95d42878ca0e1db0c7543723dfe12557e860\", \"files\": {}}",
    "dest": "cargo/vendor/errno-0.3.5",
    "dest-filename": ".cargo-checksum.json"
  },
  {
    "type": "archive",
    "archive-type": "tar-gzip",
    "url": "https://static.crates.io/crates/fastrand/fastrand-2.0.1.crate",
    "sha256": "25cbce373ec4653f1a01a31e8a5e5ec0c622dc27ff9c4e6606eefef5cbbed4a5",
    "dest": "cargo/vendor/fastrand-2.0.1"
  },
  {
    "type": "inline",
    "contents": "{\"package\": \"25cbce373ec4653f1a01a31e8a5e5ec0c622dc27ff9c4e6606eefef5cbbed4a5\", \"files\": {}}",
    "dest": "cargo/vendor/fastrand-2.0.1",
    "dest-filename": ".cargo-checksum.json"
  },
  {
    "type": "archive",
    "archive-type": "tar-gzip",
    "url": "https://static.crates.io/crates/filetime/filetime-0.2.22.crate",
    "sha256": "d4029edd3e734da6fe05b6cd7bd2960760a616bd2ddd0d59a0124746d6272af0",
    "dest": "cargo/vendor/filetime-0.2.22"
  },
  {
    "type": "inline",
    "contents": "{\"package\": \"d4029edd3e734da6fe05b6cd7bd2960760a616bd2ddd0d59a0124746d6272af0\", \"files\": {}}",
    "dest": "cargo/vendor/filetime-0.2.22",
    "dest-filename": ".cargo-checksum.json"
  },
  {
    "type": "archive",
    "archive-type": "tar-gzip",
    "url": "https://static.crates.io/crates/flate2/flate2-1.0.28.crate",
    "sha256": "46303f565772937ffe1d394a4fac6f411c6013172fadde9dcdb1e147a086940e",
    "dest": "cargo/vendor/flate2-1.0.28"
  },
  {
    "type": "inline",
    "contents": "{\"package\": \"46303f565772937ffe1d394a4fac6f411c6013172fadde9dcdb1e147a086940e\", \"files\": {}}",
    "dest": "cargo/vendor/flate2-1.0.28",
    "dest-filename": ".cargo-checksum.json"
  },
  {
    "type": "archive",
    "archive-type": "tar-gzip",
    "url": "https://static.crates.io/crates/form_urlencoded/form_urlencoded-1.2.0.crate",
    "sha256": "a62bc1cf6f830c2ec14a513a9fb124d0a213a629668a4186f329db21fe045652",
    "dest": "cargo/vendor/form_urlencoded-1.2.0"
  },
  {
    "type": "inline",
    "contents": "{\"package\": \"a62bc1cf6f830c2ec14a513a9fb124d0a213a629668a4186f329db21fe045652\", \"files\": {}}",
    "dest": "cargo/vendor/form_urlencoded-1.2.0",
    "dest-filename": ".cargo-checksum.json"
  },
  {
    "type": "archive",
    "archive-type": "tar-gzip",
    "url": "https://static.crates.io/crates/gbm/gbm-0.13.0.crate",
    "sha256": "57c97c1672f2d951da311cd20b148794c4157a8879c7650e65f76c7826e2b1c1",
    "dest": "cargo/vendor/gbm-0.13.0"
  },
  {
    "type": "inline",
    "contents": "{\"package\": \"57c97c1672f2d951da311cd20b148794c4157a8879c7650e65f76c7826e2b1c1\", \"files\": {}}",
    "dest": "cargo/vendor/gbm-0.13.0",
    "dest-filename": ".cargo-checksum.json"
  },
  {
    "type": "archive",
    "archive-type": "tar-gzip",
    "url": "https://static.crates.io/crates/gbm-sys/gbm-sys-0.2.2.crate",
    "sha256": "b63eba9b9b7a231514482deb08759301c9f9f049ac6869403f381834ebfeaf67",
    "dest": "cargo/vendor/gbm-sys-0.2.2"
  },
  {
    "type": "inline",
    "contents": "{\"package\": \"b63eba9b9b7a231514482deb08759301c9f9f049ac6869403f381834ebfeaf67\", \"files\": {}}",
    "dest": "cargo/vendor/gbm-sys-0.2.2",
    "dest-filename": ".cargo-checksum.json"
  },
  {
    "type": "archive",
    "archive-type": "tar-gzip",
    "url": "https://static.crates.io/crates/generic-array/generic-array-0.14.7.crate",
    "sha256": "85649ca51fd72272d7821adaf274ad91c288277713d9c18820d8499a7ff69e9a",
    "dest": "cargo/vendor/generic-array-0.14.7"
  },
  {
    "type": "inline",
    "contents": "{\"package\": \"85649ca51fd72272d7821adaf274ad91c288277713d9c18820d8499a7ff69e9a\", \"files\": {}}",
    "dest": "cargo/vendor/generic-array-0.14.7",
    "dest-filename": ".cargo-checksum.json"
  },
  {
    "type": "archive",
    "archive-type": "tar-gzip",
    "url": "https://static.crates.io/crates/getrandom/getrandom-0.2.10.crate",
    "sha256": "be4136b2a15dd319360be1c07d9933517ccf0be8f16bf62a3bee4f0d618df427",
    "dest": "cargo/vendor/getrandom-0.2.10"
  },
  {
    "type": "inline",
    "contents": "{\"package\": \"be4136b2a15dd319360be1c07d9933517ccf0be8f16bf62a3bee4f0d618df427\", \"files\": {}}",
    "dest": "cargo/vendor/getrandom-0.2.10",
    "dest-filename": ".cargo-checksum.json"
  },
  {
    "type": "archive",
    "archive-type": "tar-gzip",
    "url": "https://static.crates.io/crates/hashbrown/hashbrown-0.14.2.crate",
    "sha256": "f93e7192158dbcda357bdec5fb5788eebf8bbac027f3f33e719d29135ae84156",
    "dest": "cargo/vendor/hashbrown-0.14.2"
  },
  {
    "type": "inline",
    "contents": "{\"package\": \"f93e7192158dbcda357bdec5fb5788eebf8bbac027f3f33e719d29135ae84156\", \"files\": {}}",
    "dest": "cargo/vendor/hashbrown-0.14.2",
    "dest-filename": ".cargo-checksum.json"
  },
  {
    "type": "archive",
    "archive-type": "tar-gzip",
    "url": "https://static.crates.io/crates/hermit-abi/hermit-abi-0.3.3.crate",
    "sha256": "d77f7ec81a6d05a3abb01ab6eb7590f6083d08449fe5a1c8b1e620283546ccb7",
    "dest": "cargo/vendor/hermit-abi-0.3.3"
  },
  {
    "type": "inline",
    "contents": "{\"package\": \"d77f7ec81a6d05a3abb01ab6eb7590f6083d08449fe5a1c8b1e620283546ccb7\", \"files\": {}}",
    "dest": "cargo/vendor/hermit-abi-0.3.3",
    "dest-filename": ".cargo-checksum.json"
  },
  {
    "type": "archive",
    "archive-type": "tar-gzip",
    "url": "https://static.crates.io/crates/hex/hex-0.4.3.crate",
    "sha256": "7f24254aa9a54b5c858eaee2f5bccdb46aaf0e486a595ed5fd8f86ba55232a70",
    "dest": "cargo/vendor/hex-0.4.3"
  },
  {
    "type": "inline",
    "contents": "{\"package\": \"7f24254aa9a54b5c858eaee2f5bccdb46aaf0e486a595ed5fd8f86ba55232a70\", \"files\": {}}",
    "dest": "cargo/vendor/hex-0.4.3",
    "dest-filename": ".cargo-checksum.json"
  },
  {
    "type": "archive",
    "archive-type": "tar-gzip",
    "url": "https://static.crates.io/crates/idna/idna-0.4.0.crate",
    "sha256": "7d20d6b07bfbc108882d88ed8e37d39636dcc260e15e30c45e6ba089610b917c",
    "dest": "cargo/vendor/idna-0.4.0"
  },
  {
    "type": "inline",
    "contents": "{\"package\": \"7d20d6b07bfbc108882d88ed8e37d39636dcc260e15e30c45e6ba089610b917c\", \"files\": {}}",
    "dest": "cargo/vendor/idna-0.4.0",
    "dest-filename": ".cargo-checksum.json"
  },
  {
    "type": "archive",
    "archive-type": "tar-gzip",
    "url": "https://static.crates.io/crates/itoa/itoa-1.0.9.crate",
    "sha256": "af150ab688ff2122fcef229be89cb50dd66af9e01a4ff320cc137eecc9bacc38",
    "dest": "cargo/vendor/itoa-1.0.9"
  },
  {
    "type": "inline",
    "contents": "{\"package\": \"af150ab688ff2122fcef229be89cb50dd66af9e01a4ff320cc137eecc9bacc38\", \"files\": {}}",
    "dest": "cargo/vendor/itoa-1.0.9",
    "dest-filename": ".cargo-checksum.json"
  },
  {
    "type": "archive",
    "archive-type": "tar-gzip",
    "url": "https://static.crates.io/crates/jobserver/jobserver-0.1.27.crate",
    "sha256": "8c37f63953c4c63420ed5fd3d6d398c719489b9f872b9fa683262f8edd363c7d",
    "dest": "cargo/vendor/jobserver-0.1.27"
  },
  {
    "type": "inline",
    "contents": "{\"package\": \"8c37f63953c4c63420ed5fd3d6d398c719489b9f872b9fa683262f8edd363c7d\", \"files\": {}}",
    "dest": "cargo/vendor/jobserver-0.1.27",
    "dest-filename": ".cargo-checksum.json"
  },
  {
    "type": "archive",
    "archive-type": "tar-gzip",
    "url": "https://static.crates.io/crates/khronos/khronos-0.1.2.crate",
    "sha256": "c0711aaa80e6ba6eb1fa8978f1f46bfcb38ceb2f3f33f3736efbff39dac89f50",
    "dest": "cargo/vendor/khronos-0.1.2"
  },
  {
    "type": "inline",
    "contents": "{\"package\": \"c0711aaa80e6ba6eb1fa8978f1f46bfcb38ceb2f3f33f3736efbff39dac89f50\", \"files\": {}}",
    "dest": "cargo/vendor/khronos-0.1.2",
    "dest-filename": ".cargo-checksum.json"
  },
  {
    "type": "archive",
    "archive-type": "tar-gzip",
    "url": "https://static.crates.io/crates/lazy_static/lazy_static-1.4.0.crate",
    "sha256": "e2abad23fbc42b3700f2f279844dc832adb2b2eb069b2df918f455c4e18cc646",
    "dest": "cargo/vendor/lazy_static-1.4.0"
  },
  {
    "type": "inline",
    "contents": "{\"package\": \"e2abad23fbc42b3700f2f279844dc832adb2b2eb069b2df918f455c4e18cc646\", \"files\": {}}",
    "dest": "cargo/vendor/lazy_static-1.4.0",
    "dest-filename": ".cargo-checksum.json"
  },
  {
    "type": "archive",
    "archive-type": "tar-gzip",
    "url": "https://static.crates.io/crates/libc/libc-0.1.12.crate",
    "sha256": "e32a70cf75e5846d53a673923498228bbec6a8624708a9ea5645f075d6276122",
    "dest": "cargo/vendor/libc-0.1.12"
  },
  {
    "type": "inline",
    "contents": "{\"package\": \"e32a70cf75e5846d53a673923498228bbec6a8624708a9ea5645f075d6276122\", \"files\": {}}",
    "dest": "cargo/vendor/libc-0.1.12",
    "dest-filename": ".cargo-checksum.json"
  },
  {
    "type": "archive",
    "archive-type": "tar-gzip",
    "url": "https://static.crates.io/crates/libc/libc-0.2.149.crate",
    "sha256": "a08173bc88b7955d1b3145aa561539096c421ac8debde8cbc3612ec635fee29b",
    "dest": "cargo/vendor/libc-0.2.149"
  },
  {
    "type": "inline",
    "contents": "{\"package\": \"a08173bc88b7955d1b3145aa561539096c421ac8debde8cbc3612ec635fee29b\", \"files\": {}}",
    "dest": "cargo/vendor/libc-0.2.149",
    "dest-filename": ".cargo-checksum.json"
  },
  {
    "type": "archive",
    "archive-type": "tar-gzip",
    "url": "https://static.crates.io/crates/libdbus-sys/libdbus-sys-0.2.5.crate",
    "sha256": "06085512b750d640299b79be4bad3d2fa90a9c00b1fd9e1b46364f66f0485c72",
    "dest": "cargo/vendor/libdbus-sys-0.2.5"
  },
  {
    "type": "inline",
    "contents": "{\"package\": \"06085512b750d640299b79be4bad3d2fa90a9c00b1fd9e1b46364f66f0485c72\", \"files\": {}}",
    "dest": "cargo/vendor/libdbus-sys-0.2.5",
    "dest-filename": ".cargo-checksum.json"
  },
  {
    "type": "archive",
    "archive-type": "tar-gzip",
    "url": "https://static.crates.io/crates/libloading/libloading-0.7.4.crate",
    "sha256": "b67380fd3b2fbe7527a606e18729d21c6f3951633d0500574c4dc22d2d638b9f",
    "dest": "cargo/vendor/libloading-0.7.4"
  },
  {
    "type": "inline",
    "contents": "{\"package\": \"b67380fd3b2fbe7527a606e18729d21c6f3951633d0500574c4dc22d2d638b9f\", \"files\": {}}",
    "dest": "cargo/vendor/libloading-0.7.4",
    "dest-filename": ".cargo-checksum.json"
  },
  {
    "type": "archive",
    "archive-type": "tar-gzip",
    "url": "https://static.crates.io/crates/linux-raw-sys/linux-raw-sys-0.4.10.crate",
    "sha256": "da2479e8c062e40bf0066ffa0bc823de0a9368974af99c9f6df941d2c231e03f",
    "dest": "cargo/vendor/linux-raw-sys-0.4.10"
  },
  {
    "type": "inline",
    "contents": "{\"package\": \"da2479e8c062e40bf0066ffa0bc823de0a9368974af99c9f6df941d2c231e03f\", \"files\": {}}",
    "dest": "cargo/vendor/linux-raw-sys-0.4.10",
    "dest-filename": ".cargo-checksum.json"
  },
  {
    "type": "archive",
    "archive-type": "tar-gzip",
    "url": "https://static.crates.io/crates/log/log-0.4.20.crate",
    "sha256": "b5e6163cb8c49088c2c36f57875e58ccd8c87c7427f7fbd50ea6710b2f3f2e8f",
    "dest": "cargo/vendor/log-0.4.20"
  },
  {
    "type": "inline",
    "contents": "{\"package\": \"b5e6163cb8c49088c2c36f57875e58ccd8c87c7427f7fbd50ea6710b2f3f2e8f\", \"files\": {}}",
    "dest": "cargo/vendor/log-0.4.20",
    "dest-filename": ".cargo-checksum.json"
  },
  {
    "type": "archive",
    "archive-type": "tar-gzip",
    "url": "https://static.crates.io/crates/miniz_oxide/miniz_oxide-0.7.1.crate",
    "sha256": "e7810e0be55b428ada41041c41f32c9f1a42817901b4ccf45fa3d4b6561e74c7",
    "dest": "cargo/vendor/miniz_oxide-0.7.1"
  },
  {
    "type": "inline",
    "contents": "{\"package\": \"e7810e0be55b428ada41041c41f32c9f1a42817901b4ccf45fa3d4b6561e74c7\", \"files\": {}}",
    "dest": "cargo/vendor/miniz_oxide-0.7.1",
    "dest-filename": ".cargo-checksum.json"
  },
  {
    "type": "archive",
    "archive-type": "tar-gzip",
    "url": "https://static.crates.io/crates/miow/miow-0.6.0.crate",
    "sha256": "359f76430b20a79f9e20e115b3428614e654f04fab314482fc0fda0ebd3c6044",
    "dest": "cargo/vendor/miow-0.6.0"
  },
  {
    "type": "inline",
    "contents": "{\"package\": \"359f76430b20a79f9e20e115b3428614e654f04fab314482fc0fda0ebd3c6044\", \"files\": {}}",
    "dest": "cargo/vendor/miow-0.6.0",
    "dest-filename": ".cargo-checksum.json"
  },
  {
    "type": "archive",
    "archive-type": "tar-gzip",
    "url": "https://static.crates.io/crates/nix/nix-0.27.1.crate",
    "sha256": "2eb04e9c688eff1c89d72b407f168cf79bb9e867a9d3323ed6c01519eb9cc053",
    "dest": "cargo/vendor/nix-0.27.1"
  },
  {
    "type": "inline",
    "contents": "{\"package\": \"2eb04e9c688eff1c89d72b407f168cf79bb9e867a9d3323ed6c01519eb9cc053\", \"files\": {}}",
    "dest": "cargo/vendor/nix-0.27.1",
    "dest-filename": ".cargo-checksum.json"
  },
  {
    "type": "archive",
    "archive-type": "tar-gzip",
    "url": "https://static.crates.io/crates/num_cpus/num_cpus-1.16.0.crate",
    "sha256": "4161fcb6d602d4d2081af7c3a45852d875a03dd337a6bfdd6e06407b61342a43",
    "dest": "cargo/vendor/num_cpus-1.16.0"
  },
  {
    "type": "inline",
    "contents": "{\"package\": \"4161fcb6d602d4d2081af7c3a45852d875a03dd337a6bfdd6e06407b61342a43\", \"files\": {}}",
    "dest": "cargo/vendor/num_cpus-1.16.0",
    "dest-filename": ".cargo-checksum.json"
  },
  {
    "type": "archive",
    "archive-type": "tar-gzip",
    "url": "https://static.crates.io/crates/once_cell/once_cell-1.18.0.crate",
    "sha256": "dd8b5dd2ae5ed71462c540258bedcb51965123ad7e7ccf4b9a8cafaa4a63576d",
    "dest": "cargo/vendor/once_cell-1.18.0"
  },
  {
    "type": "inline",
    "contents": "{\"package\": \"dd8b5dd2ae5ed71462c540258bedcb51965123ad7e7ccf4b9a8cafaa4a63576d\", \"files\": {}}",
    "dest": "cargo/vendor/once_cell-1.18.0",
    "dest-filename": ".cargo-checksum.json"
  },
  {
    "type": "archive",
    "archive-type": "tar-gzip",
    "url": "https://static.crates.io/crates/ordered-multimap/ordered-multimap-0.7.1.crate",
    "sha256": "a4d6a8c22fc714f0c2373e6091bf6f5e9b37b1bc0b1184874b7e0a4e303d318f",
    "dest": "cargo/vendor/ordered-multimap-0.7.1"
  },
  {
    "type": "inline",
    "contents": "{\"package\": \"a4d6a8c22fc714f0c2373e6091bf6f5e9b37b1bc0b1184874b7e0a4e303d318f\", \"files\": {}}",
    "dest": "cargo/vendor/ordered-multimap-0.7.1",
    "dest-filename": ".cargo-checksum.json"
  },
  {
    "type": "archive",
    "archive-type": "tar-gzip",
    "url": "https://static.crates.io/crates/percent-encoding/percent-encoding-2.3.0.crate",
    "sha256": "9b2a4787296e9989611394c33f193f676704af1686e70b8f8033ab5ba9a35a94",
    "dest": "cargo/vendor/percent-encoding-2.3.0"
  },
  {
    "type": "inline",
    "contents": "{\"package\": \"9b2a4787296e9989611394c33f193f676704af1686e70b8f8033ab5ba9a35a94\", \"files\": {}}",
    "dest": "cargo/vendor/percent-encoding-2.3.0",
    "dest-filename": ".cargo-checksum.json"
  },
  {
    "type": "archive",
    "archive-type": "tar-gzip",
    "url": "https://static.crates.io/crates/pin-project-lite/pin-project-lite-0.2.13.crate",
    "sha256": "8afb450f006bf6385ca15ef45d71d2288452bc3683ce2e2cacc0d18e4be60b58",
    "dest": "cargo/vendor/pin-project-lite-0.2.13"
  },
  {
    "type": "inline",
    "contents": "{\"package\": \"8afb450f006bf6385ca15ef45d71d2288452bc3683ce2e2cacc0d18e4be60b58\", \"files\": {}}",
    "dest": "cargo/vendor/pin-project-lite-0.2.13",
    "dest-filename": ".cargo-checksum.json"
  },
  {
    "type": "archive",
    "archive-type": "tar-gzip",
    "url": "https://static.crates.io/crates/pkg-config/pkg-config-0.3.27.crate",
    "sha256": "26072860ba924cbfa98ea39c8c19b4dd6a4a25423dbdf219c1eca91aa0cf6964",
    "dest": "cargo/vendor/pkg-config-0.3.27"
  },
  {
    "type": "inline",
    "contents": "{\"package\": \"26072860ba924cbfa98ea39c8c19b4dd6a4a25423dbdf219c1eca91aa0cf6964\", \"files\": {}}",
    "dest": "cargo/vendor/pkg-config-0.3.27",
    "dest-filename": ".cargo-checksum.json"
  },
  {
    "type": "archive",
    "archive-type": "tar-gzip",
    "url": "https://static.crates.io/crates/proc-macro2/proc-macro2-1.0.69.crate",
    "sha256": "134c189feb4956b20f6f547d2cf727d4c0fe06722b20a0eec87ed445a97f92da",
    "dest": "cargo/vendor/proc-macro2-1.0.69"
  },
  {
    "type": "inline",
    "contents": "{\"package\": \"134c189feb4956b20f6f547d2cf727d4c0fe06722b20a0eec87ed445a97f92da\", \"files\": {}}",
    "dest": "cargo/vendor/proc-macro2-1.0.69",
    "dest-filename": ".cargo-checksum.json"
  },
  {
    "type": "archive",
    "archive-type": "tar-gzip",
    "url": "https://static.crates.io/crates/quote/quote-1.0.33.crate",
    "sha256": "5267fca4496028628a95160fc423a33e8b2e6af8a5302579e322e4b520293cae",
    "dest": "cargo/vendor/quote-1.0.33"
  },
  {
    "type": "inline",
    "contents": "{\"package\": \"5267fca4496028628a95160fc423a33e8b2e6af8a5302579e322e4b520293cae\", \"files\": {}}",
    "dest": "cargo/vendor/quote-1.0.33",
    "dest-filename": ".cargo-checksum.json"
  },
  {
    "type": "archive",
    "archive-type": "tar-gzip",
    "url": "https://static.crates.io/crates/raw-cpuid/raw-cpuid-11.0.1.crate",
    "sha256": "9d86a7c4638d42c44551f4791a20e687dbb4c3de1f33c43dd71e355cd429def1",
    "dest": "cargo/vendor/raw-cpuid-11.0.1"
  },
  {
    "type": "inline",
    "contents": "{\"package\": \"9d86a7c4638d42c44551f4791a20e687dbb4c3de1f33c43dd71e355cd429def1\", \"files\": {}}",
    "dest": "cargo/vendor/raw-cpuid-11.0.1",
    "dest-filename": ".cargo-checksum.json"
  },
  {
    "type": "archive",
    "archive-type": "tar-gzip",
    "url": "https://static.crates.io/crates/redox_syscall/redox_syscall-0.3.5.crate",
    "sha256": "567664f262709473930a4bf9e51bf2ebf3348f2e748ccc50dea20646858f8f29",
    "dest": "cargo/vendor/redox_syscall-0.3.5"
  },
  {
    "type": "inline",
    "contents": "{\"package\": \"567664f262709473930a4bf9e51bf2ebf3348f2e748ccc50dea20646858f8f29\", \"files\": {}}",
    "dest": "cargo/vendor/redox_syscall-0.3.5",
    "dest-filename": ".cargo-checksum.json"
  },
  {
    "type": "archive",
    "archive-type": "tar-gzip",
    "url": "https://static.crates.io/crates/redox_syscall/redox_syscall-0.4.1.crate",
    "sha256": "4722d768eff46b75989dd134e5c353f0d6296e5aaa3132e776cbdb56be7731aa",
    "dest": "cargo/vendor/redox_syscall-0.4.1"
  },
  {
    "type": "inline",
    "contents": "{\"package\": \"4722d768eff46b75989dd134e5c353f0d6296e5aaa3132e776cbdb56be7731aa\", \"files\": {}}",
    "dest": "cargo/vendor/redox_syscall-0.4.1",
    "dest-filename": ".cargo-checksum.json"
  },
  {
    "type": "archive",
    "archive-type": "tar-gzip",
    "url": "https://static.crates.io/crates/ring/ring-0.17.5.crate",
    "sha256": "fb0205304757e5d899b9c2e448b867ffd03ae7f988002e47cd24954391394d0b",
    "dest": "cargo/vendor/ring-0.17.5"
  },
  {
    "type": "inline",
    "contents": "{\"package\": \"fb0205304757e5d899b9c2e448b867ffd03ae7f988002e47cd24954391394d0b\", \"files\": {}}",
    "dest": "cargo/vendor/ring-0.17.5",
    "dest-filename": ".cargo-checksum.json"
  },
  {
    "type": "archive",
    "archive-type": "tar-gzip",
    "url": "https://static.crates.io/crates/rust-ini/rust-ini-0.20.0.crate",
    "sha256": "3e0698206bcb8882bf2a9ecb4c1e7785db57ff052297085a6efd4fe42302068a",
    "dest": "cargo/vendor/rust-ini-0.20.0"
  },
  {
    "type": "inline",
    "contents": "{\"package\": \"3e0698206bcb8882bf2a9ecb4c1e7785db57ff052297085a6efd4fe42302068a\", \"files\": {}}",
    "dest": "cargo/vendor/rust-ini-0.20.0",
    "dest-filename": ".cargo-checksum.json"
  },
  {
    "type": "archive",
    "archive-type": "tar-gzip",
    "url": "https://static.crates.io/crates/rustix/rustix-0.38.21.crate",
    "sha256": "2b426b0506e5d50a7d8dafcf2e81471400deb602392c7dd110815afb4eaf02a3",
    "dest": "cargo/vendor/rustix-0.38.21"
  },
  {
    "type": "inline",
    "contents": "{\"package\": \"2b426b0506e5d50a7d8dafcf2e81471400deb602392c7dd110815afb4eaf02a3\", \"files\": {}}",
    "dest": "cargo/vendor/rustix-0.38.21",
    "dest-filename": ".cargo-checksum.json"
  },
  {
    "type": "archive",
    "archive-type": "tar-gzip",
    "url": "https://static.crates.io/crates/rustls/rustls-0.21.8.crate",
    "sha256": "446e14c5cda4f3f30fe71863c34ec70f5ac79d6087097ad0bb433e1be5edf04c",
    "dest": "cargo/vendor/rustls-0.21.8"
  },
  {
    "type": "inline",
    "contents": "{\"package\": \"446e14c5cda4f3f30fe71863c34ec70f5ac79d6087097ad0bb433e1be5edf04c\", \"files\": {}}",
    "dest": "cargo/vendor/rustls-0.21.8",
    "dest-filename": ".cargo-checksum.json"
  },
  {
    "type": "archive",
    "archive-type": "tar-gzip",
    "url": "https://static.crates.io/crates/rustls-webpki/rustls-webpki-0.101.7.crate",
    "sha256": "8b6275d1ee7a1cd780b64aca7726599a1dbc893b1e64144529e55c3c2f745765",
    "dest": "cargo/vendor/rustls-webpki-0.101.7"
  },
  {
    "type": "inline",
    "contents": "{\"package\": \"8b6275d1ee7a1cd780b64aca7726599a1dbc893b1e64144529e55c3c2f745765\", \"files\": {}}",
    "dest": "cargo/vendor/rustls-webpki-0.101.7",
    "dest-filename": ".cargo-checksum.json"
  },
  {
    "type": "archive",
    "archive-type": "tar-gzip",
    "url": "https://static.crates.io/crates/ryu/ryu-1.0.15.crate",
    "sha256": "1ad4cc8da4ef723ed60bced201181d83791ad433213d8c24efffda1eec85d741",
    "dest": "cargo/vendor/ryu-1.0.15"
  },
  {
    "type": "inline",
    "contents": "{\"package\": \"1ad4cc8da4ef723ed60bced201181d83791ad433213d8c24efffda1eec85d741\", \"files\": {}}",
    "dest": "cargo/vendor/ryu-1.0.15",
    "dest-filename": ".cargo-checksum.json"
  },
  {
    "type": "archive",
    "archive-type": "tar-gzip",
    "url": "https://static.crates.io/crates/same-file/same-file-1.0.6.crate",
    "sha256": "93fc1dc3aaa9bfed95e02e6eadabb4baf7e3078b0bd1b4d7b6b0b68378900502",
    "dest": "cargo/vendor/same-file-1.0.6"
  },
  {
    "type": "inline",
    "contents": "{\"package\": \"93fc1dc3aaa9bfed95e02e6eadabb4baf7e3078b0bd1b4d7b6b0b68378900502\", \"files\": {}}",
    "dest": "cargo/vendor/same-file-1.0.6",
    "dest-filename": ".cargo-checksum.json"
  },
  {
    "type": "archive",
    "archive-type": "tar-gzip",
    "url": "https://static.crates.io/crates/sct/sct-0.7.1.crate",
    "sha256": "da046153aa2352493d6cb7da4b6e5c0c057d8a1d0a9aa8560baffdd945acd414",
    "dest": "cargo/vendor/sct-0.7.1"
  },
  {
    "type": "inline",
    "contents": "{\"package\": \"da046153aa2352493d6cb7da4b6e5c0c057d8a1d0a9aa8560baffdd945acd414\", \"files\": {}}",
    "dest": "cargo/vendor/sct-0.7.1",
    "dest-filename": ".cargo-checksum.json"
  },
  {
    "type": "archive",
    "archive-type": "tar-gzip",
    "url": "https://static.crates.io/crates/serde/serde-1.0.190.crate",
    "sha256": "91d3c334ca1ee894a2c6f6ad698fe8c435b76d504b13d436f0685d648d6d96f7",
    "dest": "cargo/vendor/serde-1.0.190"
  },
  {
    "type": "inline",
    "contents": "{\"package\": \"91d3c334ca1ee894a2c6f6ad698fe8c435b76d504b13d436f0685d648d6d96f7\", \"files\": {}}",
    "dest": "cargo/vendor/serde-1.0.190",
    "dest-filename": ".cargo-checksum.json"
  },
  {
    "type": "archive",
    "archive-type": "tar-gzip",
    "url": "https://static.crates.io/crates/serde_derive/serde_derive-1.0.190.crate",
    "sha256": "67c5609f394e5c2bd7fc51efda478004ea80ef42fee983d5c67a65e34f32c0e3",
    "dest": "cargo/vendor/serde_derive-1.0.190"
  },
  {
    "type": "inline",
    "contents": "{\"package\": \"67c5609f394e5c2bd7fc51efda478004ea80ef42fee983d5c67a65e34f32c0e3\", \"files\": {}}",
    "dest": "cargo/vendor/serde_derive-1.0.190",
    "dest-filename": ".cargo-checksum.json"
  },
  {
    "type": "archive",
    "archive-type": "tar-gzip",
    "url": "https://static.crates.io/crates/serde_json/serde_json-1.0.108.crate",
    "sha256": "3d1c7e3eac408d115102c4c24ad393e0821bb3a5df4d506a80f85f7a742a526b",
    "dest": "cargo/vendor/serde_json-1.0.108"
  },
  {
    "type": "inline",
    "contents": "{\"package\": \"3d1c7e3eac408d115102c4c24ad393e0821bb3a5df4d506a80f85f7a742a526b\", \"files\": {}}",
    "dest": "cargo/vendor/serde_json-1.0.108",
    "dest-filename": ".cargo-checksum.json"
  },
  {
    "type": "archive",
    "archive-type": "tar-gzip",
    "url": "https://static.crates.io/crates/sha2/sha2-0.10.8.crate",
    "sha256": "793db75ad2bcafc3ffa7c68b215fee268f537982cd901d132f89c6343f3a3dc8",
    "dest": "cargo/vendor/sha2-0.10.8"
  },
  {
    "type": "inline",
    "contents": "{\"package\": \"793db75ad2bcafc3ffa7c68b215fee268f537982cd901d132f89c6343f3a3dc8\", \"files\": {}}",
    "dest": "cargo/vendor/sha2-0.10.8",
    "dest-filename": ".cargo-checksum.json"
  },
  {
    "type": "archive",
    "archive-type": "tar-gzip",
    "url": "https://static.crates.io/crates/shell-escape/shell-escape-0.1.5.crate",
    "sha256": "45bb67a18fa91266cc7807181f62f9178a6873bfad7dc788c42e6430db40184f",
    "dest": "cargo/vendor/shell-escape-0.1.5"
  },
  {
    "type": "inline",
    "contents": "{\"package\": \"45bb67a18fa91266cc7807181f62f9178a6873bfad7dc788c42e6430db40184f\", \"files\": {}}",
    "dest": "cargo/vendor/shell-escape-0.1.5",
    "dest-filename": ".cargo-checksum.json"
  },
  {
    "type": "archive",
    "archive-type": "tar-gzip",
    "url": "https://static.crates.io/crates/spin/spin-0.9.8.crate",
    "sha256": "6980e8d7511241f8acf4aebddbb1ff938df5eebe98691418c4468d0b72a96a67",
    "dest": "cargo/vendor/spin-0.9.8"
  },
  {
    "type": "inline",
    "contents": "{\"package\": \"6980e8d7511241f8acf4aebddbb1ff938df5eebe98691418c4468d0b72a96a67\", \"files\": {}}",
    "dest": "cargo/vendor/spin-0.9.8",
    "dest-filename": ".cargo-checksum.json"
  },
  {
    "type": "archive",
    "archive-type": "tar-gzip",
    "url": "https://static.crates.io/crates/syn/syn-2.0.38.crate",
    "sha256": "e96b79aaa137db8f61e26363a0c9b47d8b4ec75da28b7d1d614c2303e232408b",
    "dest": "cargo/vendor/syn-2.0.38"
  },
  {
    "type": "inline",
    "contents": "{\"package\": \"e96b79aaa137db8f61e26363a0c9b47d8b4ec75da28b7d1d614c2303e232408b\", \"files\": {}}",
    "dest": "cargo/vendor/syn-2.0.38",
    "dest-filename": ".cargo-checksum.json"
  },
  {
    "type": "archive",
    "archive-type": "tar-gzip",
    "url": "https://static.crates.io/crates/tar/tar-0.4.40.crate",
    "sha256": "b16afcea1f22891c49a00c751c7b63b2233284064f11a200fc624137c51e2ddb",
    "dest": "cargo/vendor/tar-0.4.40"
  },
  {
    "type": "inline",
    "contents": "{\"package\": \"b16afcea1f22891c49a00c751c7b63b2233284064f11a200fc624137c51e2ddb\", \"files\": {}}",
    "dest": "cargo/vendor/tar-0.4.40",
    "dest-filename": ".cargo-checksum.json"
  },
  {
    "type": "archive",
    "archive-type": "tar-gzip",
    "url": "https://static.crates.io/crates/tempfile/tempfile-3.8.1.crate",
    "sha256": "7ef1adac450ad7f4b3c28589471ade84f25f731a7a0fe30d71dfa9f60fd808e5",
    "dest": "cargo/vendor/tempfile-3.8.1"
  },
  {
    "type": "inline",
    "contents": "{\"package\": \"7ef1adac450ad7f4b3c28589471ade84f25f731a7a0fe30d71dfa9f60fd808e5\", \"files\": {}}",
    "dest": "cargo/vendor/tempfile-3.8.1",
    "dest-filename": ".cargo-checksum.json"
  },
  {
    "type": "archive",
    "archive-type": "tar-gzip",
    "url": "https://static.crates.io/crates/tiny-keccak/tiny-keccak-2.0.2.crate",
    "sha256": "2c9d3793400a45f954c52e73d068316d76b6f4e36977e3fcebb13a2721e80237",
    "dest": "cargo/vendor/tiny-keccak-2.0.2"
  },
  {
    "type": "inline",
    "contents": "{\"package\": \"2c9d3793400a45f954c52e73d068316d76b6f4e36977e3fcebb13a2721e80237\", \"files\": {}}",
    "dest": "cargo/vendor/tiny-keccak-2.0.2",
    "dest-filename": ".cargo-checksum.json"
  },
  {
    "type": "archive",
    "archive-type": "tar-gzip",
    "url": "https://static.crates.io/crates/tinyvec/tinyvec-1.6.0.crate",
    "sha256": "87cc5ceb3875bb20c2890005a4e226a4651264a5c75edb2421b52861a0a0cb50",
    "dest": "cargo/vendor/tinyvec-1.6.0"
  },
  {
    "type": "inline",
    "contents": "{\"package\": \"87cc5ceb3875bb20c2890005a4e226a4651264a5c75edb2421b52861a0a0cb50\", \"files\": {}}",
    "dest": "cargo/vendor/tinyvec-1.6.0",
    "dest-filename": ".cargo-checksum.json"
  },
  {
    "type": "archive",
    "archive-type": "tar-gzip",
    "url": "https://static.crates.io/crates/tinyvec_macros/tinyvec_macros-0.1.1.crate",
    "sha256": "1f3ccbac311fea05f86f61904b462b55fb3df8837a366dfc601a0161d0532f20",
    "dest": "cargo/vendor/tinyvec_macros-0.1.1"
  },
  {
    "type": "inline",
    "contents": "{\"package\": \"1f3ccbac311fea05f86f61904b462b55fb3df8837a366dfc601a0161d0532f20\", \"files\": {}}",
    "dest": "cargo/vendor/tinyvec_macros-0.1.1",
    "dest-filename": ".cargo-checksum.json"
  },
  {
    "type": "archive",
    "archive-type": "tar-gzip",
    "url": "https://static.crates.io/crates/tracing/tracing-0.1.40.crate",
    "sha256": "c3523ab5a71916ccf420eebdf5521fcef02141234bbc0b8a49f2fdc4544364ef",
    "dest": "cargo/vendor/tracing-0.1.40"
  },
  {
    "type": "inline",
    "contents": "{\"package\": \"c3523ab5a71916ccf420eebdf5521fcef02141234bbc0b8a49f2fdc4544364ef\", \"files\": {}}",
    "dest": "cargo/vendor/tracing-0.1.40",
    "dest-filename": ".cargo-checksum.json"
  },
  {
    "type": "archive",
    "archive-type": "tar-gzip",
    "url": "https://static.crates.io/crates/tracing-attributes/tracing-attributes-0.1.27.crate",
    "sha256": "34704c8d6ebcbc939824180af020566b01a7c01f80641264eba0999f6c2b6be7",
    "dest": "cargo/vendor/tracing-attributes-0.1.27"
  },
  {
    "type": "inline",
    "contents": "{\"package\": \"34704c8d6ebcbc939824180af020566b01a7c01f80641264eba0999f6c2b6be7\", \"files\": {}}",
    "dest": "cargo/vendor/tracing-attributes-0.1.27",
    "dest-filename": ".cargo-checksum.json"
  },
  {
    "type": "archive",
    "archive-type": "tar-gzip",
    "url": "https://static.crates.io/crates/tracing-core/tracing-core-0.1.32.crate",
    "sha256": "c06d3da6113f116aaee68e4d601191614c9053067f9ab7f6edbcb161237daa54",
    "dest": "cargo/vendor/tracing-core-0.1.32"
  },
  {
    "type": "inline",
    "contents": "{\"package\": \"c06d3da6113f116aaee68e4d601191614c9053067f9ab7f6edbcb161237daa54\", \"files\": {}}",
    "dest": "cargo/vendor/tracing-core-0.1.32",
    "dest-filename": ".cargo-checksum.json"
  },
  {
    "type": "archive",
    "archive-type": "tar-gzip",
    "url": "https://static.crates.io/crates/typenum/typenum-1.17.0.crate",
    "sha256": "42ff0bf0c66b8238c6f3b578df37d0b7848e55df8577b3f74f92a69acceeb825",
    "dest": "cargo/vendor/typenum-1.17.0"
  },
  {
    "type": "inline",
    "contents": "{\"package\": \"42ff0bf0c66b8238c6f3b578df37d0b7848e55df8577b3f74f92a69acceeb825\", \"files\": {}}",
    "dest": "cargo/vendor/typenum-1.17.0",
    "dest-filename": ".cargo-checksum.json"
  },
  {
    "type": "archive",
    "archive-type": "tar-gzip",
    "url": "https://static.crates.io/crates/unicode-bidi/unicode-bidi-0.3.13.crate",
    "sha256": "92888ba5573ff080736b3648696b70cafad7d250551175acbaa4e0385b3e1460",
    "dest": "cargo/vendor/unicode-bidi-0.3.13"
  },
  {
    "type": "inline",
    "contents": "{\"package\": \"92888ba5573ff080736b3648696b70cafad7d250551175acbaa4e0385b3e1460\", \"files\": {}}",
    "dest": "cargo/vendor/unicode-bidi-0.3.13",
    "dest-filename": ".cargo-checksum.json"
  },
  {
    "type": "archive",
    "archive-type": "tar-gzip",
    "url": "https://static.crates.io/crates/unicode-ident/unicode-ident-1.0.12.crate",
    "sha256": "3354b9ac3fae1ff6755cb6db53683adb661634f67557942dea4facebec0fee4b",
    "dest": "cargo/vendor/unicode-ident-1.0.12"
  },
  {
    "type": "inline",
    "contents": "{\"package\": \"3354b9ac3fae1ff6755cb6db53683adb661634f67557942dea4facebec0fee4b\", \"files\": {}}",
    "dest": "cargo/vendor/unicode-ident-1.0.12",
    "dest-filename": ".cargo-checksum.json"
  },
  {
    "type": "archive",
    "archive-type": "tar-gzip",
    "url": "https://static.crates.io/crates/unicode-normalization/unicode-normalization-0.1.22.crate",
    "sha256": "5c5713f0fc4b5db668a2ac63cdb7bb4469d8c9fed047b1d0292cc7b0ce2ba921",
    "dest": "cargo/vendor/unicode-normalization-0.1.22"
  },
  {
    "type": "inline",
    "contents": "{\"package\": \"5c5713f0fc4b5db668a2ac63cdb7bb4469d8c9fed047b1d0292cc7b0ce2ba921\", \"files\": {}}",
    "dest": "cargo/vendor/unicode-normalization-0.1.22",
    "dest-filename": ".cargo-checksum.json"
  },
  {
    "type": "archive",
    "archive-type": "tar-gzip",
    "url": "https://static.crates.io/crates/untrusted/untrusted-0.9.0.crate",
    "sha256": "8ecb6da28b8a351d773b68d5825ac39017e680750f980f3a1a85cd8dd28a47c1",
    "dest": "cargo/vendor/untrusted-0.9.0"
  },
  {
    "type": "inline",
    "contents": "{\"package\": \"8ecb6da28b8a351d773b68d5825ac39017e680750f980f3a1a85cd8dd28a47c1\", \"files\": {}}",
    "dest": "cargo/vendor/untrusted-0.9.0",
    "dest-filename": ".cargo-checksum.json"
  },
  {
    "type": "archive",
    "archive-type": "tar-gzip",
    "url": "https://static.crates.io/crates/ureq/ureq-2.8.0.crate",
    "sha256": "f5ccd538d4a604753ebc2f17cd9946e89b77bf87f6a8e2309667c6f2e87855e3",
    "dest": "cargo/vendor/ureq-2.8.0"
  },
  {
    "type": "inline",
    "contents": "{\"package\": \"f5ccd538d4a604753ebc2f17cd9946e89b77bf87f6a8e2309667c6f2e87855e3\", \"files\": {}}",
    "dest": "cargo/vendor/ureq-2.8.0",
    "dest-filename": ".cargo-checksum.json"
  },
  {
    "type": "archive",
    "archive-type": "tar-gzip",
    "url": "https://static.crates.io/crates/url/url-2.4.1.crate",
    "sha256": "143b538f18257fac9cad154828a57c6bf5157e1aa604d4816b5995bf6de87ae5",
    "dest": "cargo/vendor/url-2.4.1"
  },
  {
    "type": "inline",
    "contents": "{\"package\": \"143b538f18257fac9cad154828a57c6bf5157e1aa604d4816b5995bf6de87ae5\", \"files\": {}}",
    "dest": "cargo/vendor/url-2.4.1",
    "dest-filename": ".cargo-checksum.json"
  },
  {
    "type": "archive",
    "archive-type": "tar-gzip",
    "url": "https://static.crates.io/crates/version_check/version_check-0.9.4.crate",
    "sha256": "49874b5167b65d7193b8aba1567f5c7d93d001cafc34600cee003eda787e483f",
    "dest": "cargo/vendor/version_check-0.9.4"
  },
  {
    "type": "inline",
    "contents": "{\"package\": \"49874b5167b65d7193b8aba1567f5c7d93d001cafc34600cee003eda787e483f\", \"files\": {}}",
    "dest": "cargo/vendor/version_check-0.9.4",
    "dest-filename": ".cargo-checksum.json"
  },
  {
    "type": "archive",
    "archive-type": "tar-gzip",
    "url": "https://static.crates.io/crates/walkdir/walkdir-2.4.0.crate",
    "sha256": "d71d857dc86794ca4c280d616f7da00d2dbfd8cd788846559a6813e6aa4b54ee",
    "dest": "cargo/vendor/walkdir-2.4.0"
  },
  {
    "type": "inline",
    "contents": "{\"package\": \"d71d857dc86794ca4c280d616f7da00d2dbfd8cd788846559a6813e6aa4b54ee\", \"files\": {}}",
    "dest": "cargo/vendor/walkdir-2.4.0",
    "dest-filename": ".cargo-checksum.json"
  },
  {
    "type": "archive",
    "archive-type": "tar-gzip",
    "url": "https://static.crates.io/crates/wasi/wasi-0.11.0+wasi-snapshot-preview1.crate",
    "sha256": "9c8d87e72b64a3b4db28d11ce29237c246188f4f51057d65a7eab63b7987e423",
    "dest": "cargo/vendor/wasi-0.11.0+wasi-snapshot-preview1"
  },
  {
    "type": "inline",
    "contents": "{\"package\": \"9c8d87e72b64a3b4db28d11ce29237c246188f4f51057d65a7eab63b7987e423\", \"files\": {}}",
    "dest": "cargo/vendor/wasi-0.11.0+wasi-snapshot-preview1",
    "dest-filename": ".cargo-checksum.json"
  },
  {
    "type": "archive",
    "archive-type": "tar-gzip",
    "url": "https://static.crates.io/crates/webpki-roots/webpki-roots-0.25.2.crate",
    "sha256": "14247bb57be4f377dfb94c72830b8ce8fc6beac03cf4bf7b9732eadd414123fc",
    "dest": "cargo/vendor/webpki-roots-0.25.2"
  },
  {
    "type": "inline",
    "contents": "{\"package\": \"14247bb57be4f377dfb94c72830b8ce8fc6beac03cf4bf7b9732eadd414123fc\", \"files\": {}}",
    "dest": "cargo/vendor/webpki-roots-0.25.2",
    "dest-filename": ".cargo-checksum.json"
  },
  {
    "type": "archive",
    "archive-type": "tar-gzip",
    "url": "https://static.crates.io/crates/winapi/winapi-0.3.9.crate",
    "sha256": "5c839a674fcd7a98952e593242ea400abe93992746761e38641405d28b00f419",
    "dest": "cargo/vendor/winapi-0.3.9"
  },
  {
    "type": "inline",
    "contents": "{\"package\": \"5c839a674fcd7a98952e593242ea400abe93992746761e38641405d28b00f419\", \"files\": {}}",
    "dest": "cargo/vendor/winapi-0.3.9",
    "dest-filename": ".cargo-checksum.json"
  },
  {
    "type": "archive",
    "archive-type": "tar-gzip",
    "url": "https://static.crates.io/crates/winapi-i686-pc-windows-gnu/winapi-i686-pc-windows-gnu-0.4.0.crate",
    "sha256": "ac3b87c63620426dd9b991e5ce0329eff545bccbbb34f3be09ff6fb6ab51b7b6",
    "dest": "cargo/vendor/winapi-i686-pc-windows-gnu-0.4.0"
  },
  {
    "type": "inline",
    "contents": "{\"package\": \"ac3b87c63620426dd9b991e5ce0329eff545bccbbb34f3be09ff6fb6ab51b7b6\", \"files\": {}}",
    "dest": "cargo/vendor/winapi-i686-pc-windows-gnu-0.4.0",
    "dest-filename": ".cargo-checksum.json"
  },
  {
    "type": "archive",
    "archive-type": "tar-gzip",
    "url": "https://static.crates.io/crates/winapi-util/winapi-util-0.1.6.crate",
    "sha256": "f29e6f9198ba0d26b4c9f07dbe6f9ed633e1f3d5b8b414090084349e46a52596",
    "dest": "cargo/vendor/winapi-util-0.1.6"
  },
  {
    "type": "inline",
    "contents": "{\"package\": \"f29e6f9198ba0d26b4c9f07dbe6f9ed633e1f3d5b8b414090084349e46a52596\", \"files\": {}}",
    "dest": "cargo/vendor/winapi-util-0.1.6",
    "dest-filename": ".cargo-checksum.json"
  },
  {
    "type": "archive",
    "archive-type": "tar-gzip",
    "url": "https://static.crates.io/crates/winapi-x86_64-pc-windows-gnu/winapi-x86_64-pc-windows-gnu-0.4.0.crate",
    "sha256": "712e227841d057c1ee1cd2fb22fa7e5a5461ae8e48fa2ca79ec42cfc1931183f",
    "dest": "cargo/vendor/winapi-x86_64-pc-windows-gnu-0.4.0"
  },
  {
    "type": "inline",
    "contents": "{\"package\": \"712e227841d057c1ee1cd2fb22fa7e5a5461ae8e48fa2ca79ec42cfc1931183f\", \"files\": {}}",
    "dest": "cargo/vendor/winapi-x86_64-pc-windows-gnu-0.4.0",
    "dest-filename": ".cargo-checksum.json"
  },
  {
    "type": "archive",
    "archive-type": "tar-gzip",
    "url": "https://static.crates.io/crates/windows-sys/windows-sys-0.48.0.crate",
    "sha256": "677d2418bec65e3338edb076e806bc1ec15693c5d0104683f2efe857f61056a9",
    "dest": "cargo/vendor/windows-sys-0.48.0"
  },
  {
    "type": "inline",
    "contents": "{\"package\": \"677d2418bec65e3338edb076e806bc1ec15693c5d0104683f2efe857f61056a9\", \"files\": {}}",
    "dest": "cargo/vendor/windows-sys-0.48.0",
    "dest-filename": ".cargo-checksum.json"
  },
  {
    "type": "archive",
    "archive-type": "tar-gzip",
    "url": "https://static.crates.io/crates/windows-targets/windows-targets-0.48.5.crate",
    "sha256": "9a2fa6e2155d7247be68c096456083145c183cbbbc2764150dda45a87197940c",
    "dest": "cargo/vendor/windows-targets-0.48.5"
  },
  {
    "type": "inline",
    "contents": "{\"package\": \"9a2fa6e2155d7247be68c096456083145c183cbbbc2764150dda45a87197940c\", \"files\": {}}",
    "dest": "cargo/vendor/windows-targets-0.48.5",
    "dest-filename": ".cargo-checksum.json"
  },
  {
    "type": "archive",
    "archive-type": "tar-gzip",
    "url": "https://static.crates.io/crates/windows_aarch64_gnullvm/windows_aarch64_gnullvm-0.48.5.crate",
    "sha256": "2b38e32f0abccf9987a4e3079dfb67dcd799fb61361e53e2882c3cbaf0d905d8",
    "dest": "cargo/vendor/windows_aarch64_gnullvm-0.48.5"
  },
  {
    "type": "inline",
    "contents": "{\"package\": \"2b38e32f0abccf9987a4e3079dfb67dcd799fb61361e53e2882c3cbaf0d905d8\", \"files\": {}}",
    "dest": "cargo/vendor/windows_aarch64_gnullvm-0.48.5",
    "dest-filename": ".cargo-checksum.json"
  },
  {
    "type": "archive",
    "archive-type": "tar-gzip",
    "url": "https://static.crates.io/crates/windows_aarch64_msvc/windows_aarch64_msvc-0.48.5.crate",
    "sha256": "dc35310971f3b2dbbf3f0690a219f40e2d9afcf64f9ab7cc1be722937c26b4bc",
    "dest": "cargo/vendor/windows_aarch64_msvc-0.48.5"
  },
  {
    "type": "inline",
    "contents": "{\"package\": \"dc35310971f3b2dbbf3f0690a219f40e2d9afcf64f9ab7cc1be722937c26b4bc\", \"files\": {}}",
    "dest": "cargo/vendor/windows_aarch64_msvc-0.48.5",
    "dest-filename": ".cargo-checksum.json"
  },
  {
    "type": "archive",
    "archive-type": "tar-gzip",
    "url": "https://static.crates.io/crates/windows_i686_gnu/windows_i686_gnu-0.48.5.crate",
    "sha256": "a75915e7def60c94dcef72200b9a8e58e5091744960da64ec734a6c6e9b3743e",
    "dest": "cargo/vendor/windows_i686_gnu-0.48.5"
  },
  {
    "type": "inline",
    "contents": "{\"package\": \"a75915e7def60c94dcef72200b9a8e58e5091744960da64ec734a6c6e9b3743e\", \"files\": {}}",
    "dest": "cargo/vendor/windows_i686_gnu-0.48.5",
    "dest-filename": ".cargo-checksum.json"
  },
  {
    "type": "archive",
    "archive-type": "tar-gzip",
    "url": "https://static.crates.io/crates/windows_i686_msvc/windows_i686_msvc-0.48.5.crate",
    "sha256": "8f55c233f70c4b27f66c523580f78f1004e8b5a8b659e05a4eb49d4166cca406",
    "dest": "cargo/vendor/windows_i686_msvc-0.48.5"
  },
  {
    "type": "inline",
    "contents": "{\"package\": \"8f55c233f70c4b27f66c523580f78f1004e8b5a8b659e05a4eb49d4166cca406\", \"files\": {}}",
    "dest": "cargo/vendor/windows_i686_msvc-0.48.5",
    "dest-filename": ".cargo-checksum.json"
  },
  {
    "type": "archive",
    "archive-type": "tar-gzip",
    "url": "https://static.crates.io/crates/windows_x86_64_gnu/windows_x86_64_gnu-0.48.5.crate",
    "sha256": "53d40abd2583d23e4718fddf1ebec84dbff8381c07cae67ff7768bbf19c6718e",
    "dest": "cargo/vendor/windows_x86_64_gnu-0.48.5"
  },
  {
    "type": "inline",
    "contents": "{\"package\": \"53d40abd2583d23e4718fddf1ebec84dbff8381c07cae67ff7768bbf19c6718e\", \"files\": {}}",
    "dest": "cargo/vendor/windows_x86_64_gnu-0.48.5",
    "dest-filename": ".cargo-checksum.json"
  },
  {
    "type": "archive",
    "archive-type": "tar-gzip",
    "url": "https://static.crates.io/crates/windows_x86_64_gnullvm/windows_x86_64_gnullvm-0.48.5.crate",
    "sha256": "0b7b52767868a23d5bab768e390dc5f5c55825b6d30b86c844ff2dc7414044cc",
    "dest": "cargo/vendor/windows_x86_64_gnullvm-0.48.5"
  },
  {
    "type": "inline",
    "contents": "{\"package\": \"0b7b52767868a23d5bab768e390dc5f5c55825b6d30b86c844ff2dc7414044cc\", \"files\": {}}",
    "dest": "cargo/vendor/windows_x86_64_gnullvm-0.48.5",
    "dest-filename": ".cargo-checksum.json"
  },
  {
    "type": "archive",
    "archive-type": "tar-gzip",
    "url": "https://static.crates.io/crates/windows_x86_64_msvc/windows_x86_64_msvc-0.48.5.crate",
    "sha256": "ed94fce61571a4006852b7389a063ab983c02eb1bb37b47f8272ce92d06d9538",
    "dest": "cargo/vendor/windows_x86_64_msvc-0.48.5"
  },
  {
    "type": "inline",
    "contents": "{\"package\": \"ed94fce61571a4006852b7389a063ab983c02eb1bb37b47f8272ce92d06d9538\", \"files\": {}}",
    "dest": "cargo/vendor/windows_x86_64_msvc-0.48.5",
    "dest-filename": ".cargo-checksum.json"
  },
  {
    "type": "archive",
    "archive-type": "tar-gzip",
    "url": "https://static.crates.io/crates/xattr/xattr-1.0.1.crate",
    "sha256": "f4686009f71ff3e5c4dbcf1a282d0a44db3f021ba69350cd42086b3e5f1c6985",
    "dest": "cargo/vendor/xattr-1.0.1"
  },
  {
    "type": "inline",
    "contents": "{\"package\": \"f4686009f71ff3e5c4dbcf1a282d0a44db3f021ba69350cd42086b3e5f1c6985\", \"files\": {}}",
    "dest": "cargo/vendor/xattr-1.0.1",
    "dest-filename": ".cargo-checksum.json"
  }
]